x,y,z
0.274123,0.949860,0.382046
0.961163,0.483587,0.009068
0.265042,0.094115,0.163707
0.431828,0.879507,0.184229
0.581435,0.354160,0.114273
0.330281,0.413433,0.174913
0.230681,0.750722,0.711861
0.772548,0.070000,0.651117
0.106251,0.737909,0.453803
0.440079,0.844614,0.318816
0.176085,0.831408,0.638123
0.744747,0.074546,0.332101
0.622208,0.447043,0.235283
0.538686,0.671006,0.812586
0.415962,0.792249,0.692156
0.402608,0.461960,0.928227
0.905522,0.966836,0.525599
0.701313,0.310870,0.439452
0.603531,0.534685,0.962286
0.754993,0.729182,0.685902
0.615769,0.137629,0.257668
0.640133,0.560974,0.443046
0.284943,0.185036,0.568238
0.040112,0.382218,0.789733
0.570080,0.590529,0.010762
0.523473,0.335337,0.726323
0.729689,0.559074,0.487993
0.203023,0.237723,0.463814
0.119023,0.936353,0.205646
0.311967,0.801241,0.588058
0.896527,0.116168,0.828283
0.889855,0.494118,0.865361
0.874954,0.143610,0.215320
0.731830,0.087682,0.137104
0.456957,0.170048,0.050763
0.345164,0.923652,0.677115
0.186122,0.863802,0.104623
0.147900,0.983905,0.807035
0.680773,0.435703,0.608382
0.351340,0.309327,0.557400
0.192308,0.644810,0.064511
0.791624,0.858184,0.126353
0.480734,0.584460,0.368999
0.161445,0.573075,0.889264
0.710277,0.635663,0.749261
0.831618,0.379501,0.391907
0.155868,0.541766,0.345760
0.499423,0.204104,0.852592
0.399823,0.998470,0.307407
0.956985,0.657284,0.075681
0.765456,0.514703,0.736276
0.424053,0.198812,0.945603
0.803699,0.975782,0.839670
0.936021,0.916857,0.227607
0.788223,0.668776,0.265128
0.125580,0.056189,0.354649
0.087197,0.264178,0.669674
0.465488,0.000759,0.769559
0.673756,0.955995,0.536744
0.926415,0.295095,0.503693
0.255671,0.407359,0.645725
0.548089,0.128587,0.098187
0.975701,0.528791,0.548151
0.519806,0.742331,0.287406
0.020781,0.274515,0.574441
0.828325,0.500525,0.406740
0.638748,0.106790,0.273670
0.242907,0.242909,0.974267
0.668735,0.222265,0.849502
0.819365,0.472203,0.028550
0.213957,0.615982,0.516049
0.303128,0.166425,0.918581
0.556324,0.010939,0.981314
0.566108,0.771062,0.297309
0.989436,0.282312,0.701095
0.699186,0.815941,0.612817
0.863008,0.688483,0.795854
0.052075,0.366854,0.621820
0.325917,0.884229,0.905317
0.380758,0.788285,0.754177
0.659859,0.037785,0.323499
0.500296,0.251465,0.425362
0.949253,0.821216,0.198620
0.293144,0.627168,0.931798
0.378625,0.155673,0.411093
0.840858,0.395688,0.772329
0.224373,0.607846,0.376576
0.015853,0.213039,0.953496
0.856704,0.024398,0.493058
0.070243,0.693121,0.877305
0.037720,0.895374,0.049314
0.596494,0.706062,0.033459
0.916307,0.048862,0.089813
0.360139,0.713840,0.144225
0.137707,0.905427,0.896543
0.063917,0.321147,0.244787
0.098591,0.345383,0.474289
0.995873,0.423005,0.155779
0.475226,0.762783,0.590755
0.006972,0.456420,0.993303
